…
fulldata1%>%group_by(jobless)

## # A tibble: 51 x 6
## # Groups:   jobless [2]
##    State                Uninsured Unemployment Rent.Estimate Income jobless
##  * <fct>                    <int>        <dbl>         <int>  <int> <chr>  
##  1 Alabama                      9          5.8           747  47221 High   
##  2 Alaska                      14          6.9          1200  75723 High   
##  3 Arizona                     12          5.4           972  57100 High   
##  4 Arkansas                     8          4             709  45907 Low    
##  5 California                   8          5.5          1358  66637 High   
##  6 Colorado                    10          3.2          1125  70566 Low    
##  7 Connecticut                  6          5.1          1123  75923 High   
##  8 Delaware                     9          4.5          1076  58046 Low    
##  9 District of Columbia         5          6.1          1424  70982 High   
## 10 Florida                     12          4.8          1077  51176 High   
## # … with 41 more rows
…
fulldata1%>%group_by(State, jobless)%>%summarize(mean(Rent.Estimate),(mean(Income)))

## # A tibble: 51 x 4
## # Groups:   State [51]
##    State                jobless `mean(Rent.Estimate)` `(mean(Income))`
##    <fct>                <chr>                   <dbl>            <dbl>
##  1 Alabama              High                      747            47221
##  2 Alaska               High                     1200            75723
##  3 Arizona              High                      972            57100
##  4 Arkansas             Low                       709            45907
##  5 California           High                     1358            66637
##  6 Colorado             Low                      1125            70566
##  7 Connecticut          High                     1123            75923
##  8 Delaware             Low                      1076            58046
##  9 District of Columbia High                     1424            70982
## 10 Florida              High                     1077            51176
## # … with 41 more rows
…
